<svg xmlns="http://www.w3.org/2000/svg" xmlns:xlink="http://www.w3.org/1999/xlink" viewBox="0 0 600 400">
<path fill="#090" d="M0 0h600v400H0z"/>
<path fill="#bf0000" d="M0 0h400v400H0z"/>
<path d="M0 0h200v400H0z"/>
<g stroke-width=".5" stroke="#bd6b00" fill-rule="evenodd" fill="#fff">
<path d="M319.5 225.84l8.354.001c.031 3.157 1.881 6.549 4.48 8.493h-16.008c2.505-2.271 3.19-4.963 3.174-8.494z"/>
<path d="M266.71 178.53l4.574 5.04 56.934.093 4.668-5.04-14.56-.186-7.094-4.947-22.868-.093-6.627 5.133H266.71z" stroke="none"/>
<path d="M290.02 172.74l19.66-.02c2.662-1.408 3.492-5.902 3.479-8.416-.037-7.429-5.233-10.991-10.447-11.18-.781-.04-1.688-.648-1.895-1.36-.514-1.613-.381-2.641-.944-2.584-.5-.007-.353.94-.799 2.453-.245.752-1.09 1.494-1.934 1.537-6.49.324-10.676 5.062-10.513 11.134.11 4.015.577 6.413 3.393 8.437z"/>
<path d="M257.66 242.83h84.469l-7.56-6.16H265.22l-7.56 6.16z" stroke="none"/>
<path d="M296.39 219.69l1.54 4.62h3.499l-2.799-4.621h-2.24zm-1.96 4.62l.887 4.573 4.106.046-1.493-4.62h-3.5zm6.953.046l2.847 4.527h5.834l-4.573-4.575-4.107.048zm-34.44 10.36c3.095-2.878 5.07-5.335 5.086-8.866h7.56c.015 1.976.73 3.157 1.82 3.08l7.654-.047-.046-4.527h-5.554l-.001-24.688c-.202-8.726 10.609-13.813 15.028-13.767l-26.275-.046v-.793h55.255l.047.793-26.647.046c7.902.016 15.524 7.5 15.587 13.815v7h-1.028l-.046-6.906c0-6.908-8.7-13.363-15.681-13.161-6.037.173-15.4 5.927-15.307 13.115v2.146l14.327.094-.14 2.472 2.25 1.436 4.486 1.43-.065 3.71 3.213.947.028 3.706 3.855 1.654v3.836l2.445 1.507-.112 3.895 3.314 2.333h-7.84l4.9 5.46h-7.234l-3.594-5.46h-4.76l2.147 5.413-5.085-.046-1.215-5.367h-6.206l.046 5.786h-22.214zm22.168-14.98v4.572h5.32l-1.075-4.573h-4.245z"/>
<path fill="none" d="M289.39 211.66h3.313v7.607h-3.313z"/>
<path d="M284.71 219.8h3.234l-.02-5.597c-.042-2.433 2.142-4.885 3.187-4.967 1.159-.044 2.867 2.297 2.924 4.776l.047 5.806 3.43-.007v-14.41l-12.802.067V219.8zM310.3 223.14h4.013v3.127H310.3zM307.92 217.77h4.013v3.127h-4.013zM304.05 212.4h4.013v3.127h-4.013zM300.74 207.88h4.013v3.127h-4.013z" fill="none"/>
<path d="M298.08 219.82l4.106.14 7.327 6.487v-3.827l-2.473-1.773v-3.034l-3.594-2.052v-3.268l-3.5-1.166v-4.434l-1.774-1.447-.092 14.374z" fill="none"/>
<path d="M315.43 210.35h.98v7.047h-.98z"/>
<g id="a">
<path d="M257.32 186.53c-1.234-1.982-2.712 2.749-7.788 6.27-2.363 1.609-4.009 5.894-4.025 8.713-.077 1.937.216 3.868 0 5.741-.137 1.186-1.372 3.816-.527 4.489 2.234 1.66 5.126 5.43 6.467 6.731 1.16 1.017 2.165-5.248 3.036-8.051.933-3.005.515-6.596 3.102-9.372 1.834-1.875 6.46-3.72 5.94-4.554l-6.205-9.967z"/>
<path d="M257.06 201.88a10.09 10.09 0 0 0-1.656-2.594c-.699-.792-1.525-1.457-2.438-1.781-.881-.325-1.779-.751-2.406-1.531a3.645 3.645 0 0 1-.719-1.469c-.124-.544-.123-1.21-.03-1.969-.11.08-.169.172-.282.25-2.363 1.608-4.016 5.9-4.031 8.719a28.487 28.487 0 0 0 0 2.313c.175.485.343.955.593 1.25.326.383.714.636 1.125.812.824.352 1.775.425 2.657.75.912.324 1.851 1.058 2.656 1.938a10.51 10.51 0 0 1 1.75 2.656c.066-.243.154-.604.219-.813.845-2.721.697-5.889 2.562-8.531z" fill="#bf0000"/>
<path d="M249.82 192.39c-.484 3.356 1.385 4.473 3.148 5.123 1.825.648 3.322 2.606 4.093 4.378M245.3 203.44c.77 2.893 2.798 2.531 4.561 3.181 1.826.649 3.745 2.957 4.516 4.729" fill="none"/>
<path d="M255.61 184.48l.925-.594 17.752 29.898-.924.594-17.753-29.898z"/>
<path d="M257.52 183.29a2.046 2.046 0 1 1-4.092 0 2.046 2.046 0 1 1 4.092 0zM272.7 159.27h7.194v1.65H272.7zM272.7 162.4h7.194v13.784H272.7zM272.26 157.39l7.98.047c.312-2.706-2.39-5.63-3.966-5.6-1.56.076-4.076 2.956-4.014 5.553z"/>
<path stroke="none" d="M292.62 155.76c-1.521.64-2.688 2.377-3.406 4.375-.719 1.998-.992 4.267-.656 6.094v.031c.127.63.3 1.083.5 1.406s.422.514.687.563c.265.049.514-.093.656-.313.143-.22.212-.509.188-.844-.144-1.878-.135-3.732.312-5.406.448-1.674 1.338-3.164 2.97-4.375.294-.216.463-.463.5-.719.035-.255-.1-.474-.282-.625-.364-.301-.938-.407-1.469-.187zm.156.438c.37-.154.842-.064 1.031.093.095.079.106.133.094.219-.012.086-.077.234-.312.406-1.713 1.272-2.657 2.872-3.125 4.625s-.459 3.66-.313 5.563c.02.257-.055.455-.125.562s-.107.14-.187.125c-.081-.015-.248-.117-.407-.375s-.317-.656-.437-1.25c-.315-1.714-.037-3.947.656-5.875.694-1.927 1.803-3.538 3.125-4.094z" fill="#bd6b00"/>
<path stroke="none" d="M295.19 157.73c-1.52.639-2.501 2.292-3.031 4.188-.53 1.895-.614 4.065-.281 5.874.26 1.284.934 1.962 1.593 2.063.33.05.648-.08.844-.344.196-.264.26-.619.156-1.062-.372-1.498-.515-3.366-.25-5.063s.94-3.211 2.22-4.125c.295-.215.463-.463.5-.719.035-.255-.1-.505-.282-.656-.364-.302-.937-.376-1.469-.156zm.188.438c.37-.154.81-.064 1 .093.094.079.137.134.125.219-.012.085-.109.235-.344.406-1.412 1.009-2.129 2.664-2.406 4.438-.278 1.773-.105 3.664.28 5.218.083.354.001.592-.093.72-.094.127-.214.185-.406.155-.384-.059-.983-.554-1.219-1.718-.318-1.732-.227-3.868.281-5.688s1.457-3.287 2.781-3.844z" fill="#bd6b00"/>
<path d="M272.31 187.39h8.027v11.107h-8.027zM272.78 204.85h7.747v2.333h-7.747zM272.59 208.95h7.934v8.68h-7.934zM272.03 219.41h8.68v4.853h-8.68zM273.1 202.76h6.995l1.387-2.31h-9.636l1.254 2.31zM282.53 194.25l.066-6.071h4.818c-1.893 1.561-3.652 3.454-4.884 6.071z"/>
<path d="M273.56 196.74c.048 1.299 1.518.72 1.518.066 0-2.004.027-4.17-.053-5.588-.01-1.045 2.49-.783 2.476-.14.01 1.692.029 4.012.038 5.992-.018.964 1.615.88 1.593 0-.01-2.212-.011-5.425 0-7.052.014-2.096-5.502-2.05-5.545-.047.002 1.645-.03 4.59-.027 6.769zM273.57 209.98h5.694v7.093h-5.694z" fill="none"/>
<path d="M277.21 212.92h2.007v1.167h-2.007zM273.71 212.92h1.96v1.167h-1.96z"/>
<path d="M275.67 210.07h1.54v2.893h-1.54zM275.67 214.04h1.54v3.08h-1.54zM243.99 138.97c.356 5.567-1.371 8.623-4.32 8.158-.812-3.088 1.036-5.16 4.32-8.158zM237.52 151.31c-2.621-1.333-.73-11.513.276-15.78.744 5.497 1.99 13.309-.276 15.78z"/>
<path d="M238.45 151.79c4.406 1.533 7.894-3.212 9.073-8.708-3.636 5.019-9.554 5.025-9.073 8.708zM235.11 156.93c-3.445-.91-1.37-11.71-.744-16.03.757 4.462 3.132 14.552.744 16.03zM236.29 156.59c.192-3.725 3.905-2.648 6.468-4.636-.418 1.86-1.994 5.16-6.468 4.636zM232.07 161.58c-3.414-.921-1.362-12.544-1.555-17.329 1 4.135 4.17 16.209 1.555 17.329zM233.66 161.08c2.797.91 6.501-.908 6.793-4.239-2.409 1.635-6.254.385-6.793 4.239z"/>
<path d="M229.52 166.71c-3.265.26-1.804-9.638-1.802-18.857 1.2 8.617 4.467 16.505 1.802 18.857z"/>
<path d="M230.65 166.26c2.205 1.106 6.156-.662 7.284-4.387-3.984 1.733-6.648.04-7.284 4.387zM256.28 144.13c-.58 4.829-2.554 7.638-5.503 7.174-.812-3.088 1.579-5.062 5.503-7.174zM248.48 156.52c4.898.695 6.662-3.064 9.96-7.87-4.621 3.344-10.146 4.039-9.96 7.87z"/>
<path d="M247.09 155.97c-2.67-3.204-.09-7.228 1.95-10.657-.438 5.102 1.3 7.94-1.95 10.657zM245.91 161.26c-.301-3.134 5.038-3.83 7.452-5.572-.812 1.811-2.043 6.687-7.452 5.572z"/>
<path d="M244.79 161.33c-3.691-.418-2.159-6.686.487-10.17-1.114 4.807 1.95 8.15-.487 10.17z"/>
<path d="M242.01 166.55c-4.202-1.858-1.509-7.127.07-10.238-.673 4.086 2.693 7.196-.07 10.238z"/>
<path d="M242.84 166.06c2.205 2.879 6.501-.859 7.383-5.224-3.738 3.112-6.5 2.6-7.383 5.224zM233.24 186.32c-.432-4.287 2.793-12.084.504-16.24-.312-.571.685-2.087 1.33-1.167 1.006 1.468 2.04 5.652 2.473 4.107.459-1.68.53-4.65 2.017-5.228.949-.338 2.29-.559 1.924.934-.363 1.436-1.177 3.42-.275 3.547.523.078 2.03-1.954 3.3-2.893 1.022-.838 2.548.473 1.053 1.726-4.861 4.037-9.57 5.854-12.326 15.214zM224.51 250.85c-.57-.11-1.352-.303-.64.584 5.678 6.996 7.321 8.924 15.602 7.94 8.365-1.102 10.357-3.364 16.214-6.65 3.129-1.836 7.703-2.243 11.17-1.106 1.614.528 2.59.56 1.434-.599-1.158-1.157-2.525-2.73-3.949-3.815-3.118-2.394-8.407-3.432-12.723-2.662-6.104.958-11.148 4.845-17.176 6.313-3.167.723-6.64.614-9.931-.005zM272.3 263.35c1.056.131 1.725 2.177 2.245.792.881-2.242.264-4.026-.727-3.829-1.17.312-3.147 2.934-1.518 3.037z"/>
<path stroke="none" d="M220.6 182.92c-1.215-1.269-.864-1.754.933-1.774 1.425-.09 4.25.873 5.32.093.983-.713.592-3.738 1.028-5.133.19-.778.735-1.999 1.96-.093 3.622 5.804 8.146 12.773 10.08 19.6 1.057 3.826.062 9.8-3.454 13.814.124-3.423-1.152-5.725-2.707-8.587-1.921-3.762-9.057-13.951-13.16-17.92z"/>
<path d="M235.53 213.44c3.983.02 4.667-5.32 4.667-6.813-1.96.373-5.414 3.64-4.667 6.813zM269.95 265.26c2.833.645 2.794-6.178-.1-9.07 1.274 4.382-2.128 8.388.1 9.07zM268.85 265.2c.187 3.243-7.959-.424-10.052-2.946 4.813 2.044 9.815.352 10.052 2.946zM265.28 260.57c.291 3.141-7.064.38-9.238-2.074 4.83 1.56 8.917-.511 9.238 2.074zM266.63 261.01c2.833.645 2.374-6.412-.38-8.837 1.322 4.71-1.848 8.155.38 8.837zM263.65 256.72c2.833.645 1.207-5.431-.893-7.857.341 4.43-1.055 7.502.893 7.857zM262.15 256.7c.292 3.235-5.43.751-7.65-2.309 4.782 1.561 7.329-.276 7.65 2.309zM260.59 254.24c1.856-1.334-.113-4.863-3.645-4.645.346 2.132 1.566 5.88 3.645 4.645zM274.54 268.87c.187 3.243-7.96 1.63-10.519-1.825 5.139.97 10.281-.769 10.519 1.825zM242.18 263.07c.292 3.235-8.602-.322-10.823-3.383 4.783 1.561 10.502.798 10.823 3.383zM247.63 264.45c1.856-1.334-1.933-4.77-4.951-5.578.346 2.131 2.872 6.813 4.951 5.578zM248.2 266.69c.199 2.908-9.537 1.313-12.084-1.374 8.377 1.514 11.81-1.117 12.084 1.374z"/>
<path d="M252.76 268.63c1.08 2.701-8.264 2.042-11.545.471 5.301-.046 10.802-2.353 11.545-.471z"/>
<path d="M257.13 270.6c1.034 2.421-7.61 2.369-11.824 1.03 5.581-.045 10.801-3.426 11.824-1.03zM263.42 271.9c1.531 2.865-7.588 3.143-10.547 1.733 5.273-.725 9.242-3.988 10.547-1.733zM252.74 267c-2.901 1.83-2.746-3.564-5.053-7.3 3.625 3.302 7.02 5.556 5.053 7.3z"/>
<path d="M257.88 268.94c-2.433 2.156-4.379-5.246-6.594-9.399 3.58 3.954 8.84 7.609 6.594 9.399zM264.68 271c-2.06 2.389-8.02-7.018-10.187-11.919 3.3 3.815 11.826 9.895 10.187 11.919zM258.88 278.18c-1.028 3.632-16.192-3.423-17.885-7.079 8.677 4.598 18.092 3.636 17.885 7.079zM210.15 204.38c-.355-.46-1.374.012-1.12 1.12.237 1.501 2.45 9.204 6.252 11.854 2.712 1.954 16.965 5.102 23.427 6.439 3.556.715 6.535 2.49 8.868 5.32-.965-3.702-1.74-6.445-2.987-9.8-1.211-2.947-4.421-6.173-7.746-6.346-6.175-.222-14.167-.748-19.974-3.268-2.997-1.252-4.792-2.943-6.72-5.32z"/>
<path d="M245.54 234.87c1.947 1.434 4.096-3.704 1.623-8.588-.078 4.701-3.815 6.28-1.623 8.588z"/>
<path d="M247.41 239.58c2.693.827 3.536-3.937 1.763-7.747.295 4.093-4.234 6.56-1.763 7.747z"/>
<path d="M249.46 243.36c2.6 1.295 3.585-3.518 1.716-7.092.204 4.56-3.72 5.904-1.716 7.092z"/>
<path d="M248.39 243.65c-1.03 3.08-7.007-2.655-8.014-5.775 3.71 3.685 8.757 3.278 8.014 5.775z"/>
<path d="M245.68 238.94c-1.171 3.08-8.687-4.85-10.348-8.668 3.71 3.685 11.184 6.498 10.348 8.668z"/>
<path d="M244.19 234.32c-1.17 3.5-9.34-5.829-11.654-9.135 3.897 3.639 12.537 6.592 11.654 9.135zM243.93 230.86c2.877-.56-.163-2.955-3.69-6.849-.164 4.1.509 6.966 3.69 6.849z"/>
<path d="M239.08 228.53c1.242-1.353-1.19-1.929-4.203-5.31-.444 2.28 2.794 6.454 4.203 5.31zM253 243.73c1.574.921 2.652-2.304.69-5.225-.45 3.16-2.133 4.037-.69 5.225zM218.81 223.38c-3.342 2.004-8.652-5.992-10.068-9.282 2.933 3.776 10.699 7.224 10.068 9.282z"/>
<path d="M221.65 228.04c-1.85 2.05-7.671-3.519-9.694-6.341 3.12 2.702 10.512 3.023 9.694 6.341z"/>
<path d="M224.82 232.22c-.61 2.801-9.106-3.495-11.092-6.476 3.663 3.452 11.649 3.14 11.092 6.476z"/>
<path d="M223.52 235.25c-1.31 2.522-8.22-3.727-9.88-6.987 4.223 3.685 10.95 4.493 9.88 6.987zM219.97 222.97c2.18-2.299 1.252-3.376-.338-7-.869 3.721-2.18 5.206.338 7zM222.86 227.31c3.954.174.038-4.638-.897-8.68.344 4.607-1.014 8.238.897 8.68z"/>
<path d="M225.38 231.13c2.74-.62 1.95-4.497-.15-9.193.436 5.073-2.321 8.005.15 9.193zM224.45 238.8c-1.03 3.08-8.826-4.056-10.067-6.755 3.943 3.312 10.763 4.445 10.067 6.755z"/>
<path d="M229.12 243.61c-1.17 3.082-9.34-3.167-11.839-6.568 4.922 3.872 12.443 3.513 11.839 6.568z"/>
<path d="M233.88 248.46c-1.31 4.294-9.853-2.56-12.399-5.915 5.436 4.151 13.096 2.86 12.399 5.915zM225.85 237.43c2.32 1.201 3.258-5.384 1.949-10.033.017 5.074-4.654 8.845-1.949 10.033z"/>
<path d="M229.81 242.66c2.788.828 1.904-6.27-.478-10.873-.309 4.561-2.366 8.892.478 10.873zM234.76 247.56c3.114.174.971-6.084-1.597-9.613.437 4.607-1.013 9.079 1.597 9.613zM229.3 250.23c-.936 1.586-3.226-1.347-6.986-3.489 3.382.885 7.402 2.019 6.986 3.489zM227.52 197.49c2.906-2.15.69-6.173 0-9.998-.935 3.628-3.397 8.389 0 9.998zM227.42 202.85c-4.366-.524-3.71-6.171-3.84-9.75 1.312 4.858 4.891 5.679 3.84 9.75zM228.11 202.12c3.694-.214 3.498-4.417 3.695-8.668-1.872 3.907-4.09 4.514-3.695 8.668z"/>
<path d="M227.96 207.34c-2.873.23-4.366-2.594-5.023-6.993 2.725 4.054 5.203 2.79 5.023 6.993zM228.99 206.99c3.694.475 3.104-3.825 2.955-6.995-1.132 3.022-4.136 3.974-2.955 6.995z"/>
<path d="M223.23 205.17c.295 2.807 2.07 7.634 4.926 6.55 1.181-3.448-2.513-4.137-4.926-6.55z"/>
<path d="M229.04 212.02c-1.28-2.462 2.905-3.695 3.792-6.895.509 4.58.082 7.584-3.792 6.895zM217.13 182.84c2.3-2.477.269-6.406-.42-10.231-.936 3.628-2.557 8.435.42 10.231zM217.06 187.45c-4.039.41-5.016-7.804-5.427-11.337 1.313 4.859 5.965 7.08 5.427 11.337zM217.89 187.37c2.854-1.474 2.191-4.65 3.088-7.035-1.919 2.928-3.669 3.347-3.088 7.035z"/>
<path d="M217.09 192.75c-4.225.362-6.742-8.739-6.874-12.318 1.313 4.859 7.366 7.5 6.874 12.318zM217.9 192.61c3.973-.914 3.498-3.483 2.902-7.642-1.265 4.188-3.483 3.3-2.902 7.642z"/>
<path d="M217.04 198c-4.646.788-4.32-6.56-8.009-11.893 3.191 3.96 8.936 8.95 8.009 11.893zM218.09 197.75c3.507.102 3.85-5.179 3.656-7.32-.807 2.133-4.93 4.159-3.656 7.32z"/>
<path d="M209.78 192.34c1.742 5.654 4.216 11.32 7.259 10.89 1.46-3.215-2.887-3.624-7.259-10.89z"/>
<path d="M218.14 202.4c-1.28-2.462 2.905-3.695 3.792-6.895.509 4.58.082 7.584-3.792 6.895zM210.98 198.8c2.487 5.094 3.609 10.948 7.024 10.097 1.275-3.961-3.771-4.79-7.024-10.097z"/>
<path d="M218.71 207.93c-1.467-2.695 2.719-3.648 3.745-7.362.556 4.86.036 8.33-3.745 7.362zM225.87 173.45c2.451.663 5.022-2.09 4.131-6.208-2.801.697-4.087 3.24-4.131 6.208zM218.03 171.39c.214 1.159 1.623 1.264 1.214-.373-.342-1.328-.4-2.327 0-3.407.548-1.353.365-3.658-.047-4.62-.416-1.015-1.793-.42-1.214.375.638.92.672 2.837.233 3.732-.577 1.32-.42 3.075-.186 4.293zM240.9 187.31c-.947 1.393-2.881.541-1.408-1.372 1.208-1.549 2.928-2.814 3.055-4.414.1-2.029 1.291-5.107 2.373-6.145 1.118-1.106 2.409.45 1.214 1.188-1.342.872-2.214 4.456-2.185 5.836-.045 2.001-2.041 3.447-3.049 4.907zM237.92 185.07c-.947 1.393-2.457.585-1.601-1.652.722-1.549.8-3.468 1.604-4.6 1.125-1.717 3.03-3.147 4.112-4.186 1.118-1.106 2.046-.04 1.021.908-1.244 1.245-2.595 2.795-3.345 3.97-1.4 2.28-.783 4.1-1.79 5.56zM222.18 177.86c-.112 1.967 1.47 2.443 1.4-.409-.072-2.978-2.179-5.702-.886-10.235.68-2.217.691-6.281.28-8.441-.363-2.142-1.887-.743-1.308.925.638 1.935-.12 5.645-.607 7.511-1.463 5.434 1.207 8.08 1.121 10.65zM226.5 166.98c-.232 1.81-1.764 1.974-1.319-.582.371-2.075.435-3.635 0-5.321-.596-2.114-.397-5.714.05-7.216.452-1.585 1.95-.656 1.32.584-.694 1.439-.73 4.432-.254 5.83.627 2.063.457 4.802.203 6.705zM210.94 204c.758.902 2.036.298.871-.923-.952-.987-.639-1.298-1.22-2.5-.574-1.343-.544-2.084-1.237-3.044-.613-.91-1.535.019-.917.785.775.906.561 1.574 1.035 2.45.877 1.5.663 2.288 1.468 3.232zM231.34 228.61c2.44 1.2 4.291 4.196 4.413 6.636.207 2.809.612 5.18 1.873 7.176-2.008-.559-2.97-3.76-3.255-6.825-.29-3.173-1.999-4.549-3.031-6.987zM236.42 234.49c1.688 3.116 4.049 4.304 4.17 6.617.204 2.66.406 2.797 1.127 5.413-1.987-.53-2.487-.703-3.024-4.684-.33-2.798-2.57-4.772-2.273-7.346z"/>
<path stroke="none" d="M288.97 263.32c.949 1.788 2.038 4.51 4.013 4.013.03-1.37-2.131-2.318-4.013-4.013zM291.91 263.93c3.835 1.572 7.147 1.184 7.56 3.595-3.598.388-4.914-1.09-7.56-3.595zM275.85 251.24c2.583 2.116 4.259 4.531 5.04 7.653.815 2.908 1.96 5.226 3.641 7.84-2.738-1.867-4.46-4.407-5.32-7.467-.757-3.009-1.65-5.257-3.361-8.026zM279.03 251.23c2.77 2.21 5.38 4.719 6.16 7.84.815 2.908 1.308 5.134 3.175 8.027-2.925-1.867-4.086-4.688-4.947-7.748-.756-3.007-2.49-5.255-4.388-8.119zM288.17 258.47c-.076-.546.297-1.023.747-1.166a33.429 33.429 0 0 1 2.612-.84c.986-.233 1.538.47 1.541.933.005.77.04 1.423 0 2.006-.053.726-.192.78-.653.888-.738.124-1.685.25-2.426.746-.588.361-1.153.076-1.447-.559-.19-.485-.294-1.433-.374-2.008zM298.8 258.47c.068-.546-.22-1.07-.621-1.213-.781-.327-1.56-.407-2.38-.374-.912-.014-1.141.192-1.144.654-.004.77-.037 1.516 0 2.099.048.726.032.78.444.888.66.124 1.784.157 2.447.653.525.36 1.124.075 1.153-.606-.013-.513.03-1.526.1-2.101z"/>
</g>
<use x="-600" xlink:href="#a" transform="scale(-1 1)"/>
<g stroke="none">
<path d="M328.54 286.65c.047 1.181.188 2.131.888 3.08-4.076-1.633-9.831-.759-13.767 1.074-1.756.838-3.88-.958-1.821-2.66 2.93-2.374 9.706-1.028 14.7-1.494zm-57.505-.062c.057 1.113-.072 2.133-.481 3.106 4.43-1.835 9.187-.31 13.664 1.494 3.077 1.273 3.325-.93 2.782-1.692-.934-1.353-2.742-2.838-5.028-2.87-1.522-.021-7.382-.074-10.937-.038zm3.74-21.642c-1.236-.533-2.672-.02-3.96 1.335-4.327 4.24-9.404 8.371-13.502 11.584-1.529 1.329-3.091 3.712 3.431 6.094.237.09 4.991 1.852 8.004 1.964 1.23-.034 1.227 1.803.999 2.293-.52.978-.143 1.352-1.193 2.293-1.095.924.117 2.12.977 1.307 3.672-3.188 9.627-1.148 15.366.718 1.356.375 3.837.27 3.815-1.6.024-2.038 1.5-3.48 2.404-3.532 2.343.406 13.919.535 17.485.102 2.079-.27 2.204 2.848 3.316 4.077.767.815 3.72 1.031 5.743.137 4-1.858 10.097-1.858 12.582-.082 1.021.778 1.828.147 1.247-.643-.748-1.08-.731-1.58-1.103-2.433-.933-1.898-.188-2.363.79-2.5 11.054-1.426 14.582-5.197 11.202-8.272-4.364-3.828-9.222-7.676-13.408-12.198-1.135-1.2-1.885-1.68-4.247-.699-7.221 3.289-16.388 5.687-25.358 5.862-8.347.072-19.824-3.79-24.589-5.807z"/>
<path d="M326.62 265.54c-.58.058-1.197.238-1.656.406-8.921 3.134-17.117 5.328-25.656 5.313-8.335-.016-17.066-2.31-24.906-5.531-.446-.191-.96-.161-1.469-.032-.509.13-1.012.366-1.344.688-3.64 3.626-7.582 7.148-11.812 10.344-.639.488-.535 1.73.5 2.156h.031c8.305 2.98 16.412 8.532 39.625 8.313 23.433-.222 31.746-5.64 39.188-8.125.525-.2 1.065-.5 1.313-.97.124-.234.158-.525.062-.812-.095-.286-.283-.554-.625-.843h-.03c-4.224-3.453-8.75-6.207-11.72-10.406-.334-.48-.92-.558-1.5-.5zm.031.438c.507-.051.895.027 1.094.312 3.041 4.301 7.621 7.074 11.812 10.5.3.254.442.48.5.656a.498.498 0 0 1-.031.438c-.15.284-.59.57-1.063.75-7.534 2.515-15.668 7.904-39.03 8.125-23.116.218-31.095-5.303-39.47-8.313-.754-.31-.687-1.16-.406-1.375 4.242-3.206 8.227-6.741 11.875-10.375.25-.243.653-.45 1.094-.562.44-.113.912-.131 1.219 0 7.879 3.238 16.613 5.578 25.03 5.594 8.619.015 16.904-2.204 25.845-5.344.445-.163 1.024-.356 1.53-.406z" fill="#bd6b00"/>
<path d="M269.71 114.56c-.068-1.379 2.07-1.484 1.824.412-.313 2.362 4.459 8.342 4.854 12.029.265 2.473-1.453 4.637-3.154 5.984-2.086 1.616-5.293 1.394-6.794.467-.908-.731-1.735-3.234-1.056-4.224.24-.334 1.328 3.673 3.722 3.657 3.258-.02 5.896-2.468 5.993-4.65.167-3.802-5.33-9.81-5.389-13.676zM279.24 123.95c.539-.385 1.399 1.296.792 1.716-.505.337-1.492-1.25-.792-1.716zM280.69 120.54c-.272.132-.814-.056-.652-.287.762-1.089 2.387-2.728 3.565-3.3.362-.176.995.463.776.776-.705 1.007-2.42 2.195-3.689 2.811zM293.28 110.55c.302-.63 2.117-1.344 2.58-1.77.427-.439.631.37.448.751-.302.63-1.868 1.696-2.555 1.724-.37.016-.656-.324-.473-.705zM297.59 110.75c.393-1.107 1.66-2.786 2.533-3.339.448-.283 1.252-.06 1.101.364-.333.94-1.884 2.581-2.927 3.355-.316.282-.798-.123-.707-.38zM293.9 113.52c-.263.132-.12.691.133.776.538.18 1.52.214 1.964-.03.645-.398.35-2.845-.513-1.538-.58.806-1.002.547-1.584.792zM286.61 119.14c-1.318-1.026.355-2.464 1.732-1.46 2.683 2.024-4.003 9.778-7.64 13.403-.666.71-1.25-1.078-.397-1.848 2.608-2.212 5.05-4.855 6.747-7.586.327-.525.64-1.658-.442-2.509zM301.88 112.47c.164-.982-1.589.02-1.621-1.281-.017-.69 1.915-1.173 2.722-.38 1.365 1.384.345 3.718-1.924 3.865-1.891.084-5.046 2.685-4.566 3.232.546.675 5.45 1.121 8.302.675 1.765-.248 1.395 1.331-.414 1.545-1.747.201-3.171.015-4.805.528-1.922.549-2.76 3.13-3.828 4.092-.238.167-.88-.846-.636-1.227.77-1.203 1.996-3.045 3.346-3.572.852-.345-2.348-.454-3.37-.745-.81-.244-.574-1.274-.264-1.848.412-.895 3.429-3.916 4.645-3.867 1.142.049 2.3-.284 2.413-1.017zM306.96 112.73c.567-.5.858-1.338 1.453-1.848.326-.327.847.065.76.853-.073.621-.907 1.156-1.468 1.623-.456.342-.986-.396-.745-.628zM313.43 110.43c.845-.093 1.055 1.537.131 1.801-.56.187-1.05-1.705-.131-1.801zM311.3 115.47c-.013 1.404.68 1.275 2.002 1.227 1.283-.049 2.412.033 2.407-1.235-.006-1.314-.727-2.464-.939-1.57-.186.84-.334 2.216-.823 1.617-.46-.515-.278-.628-1.071.217-.44.466-.49-.226-.754-.66-.184-.257-.82.208-.822.404zM302.08 122.63c-.315 1.858-.026 4.459.925 4.488 1.175.038 3.607-4.061 4.759-6.188.69-1.187 1.877-1.394 1.382-.156-.749 1.91-.682 5.998-.024 7.199.354.647 2.964-.593 3.386-1.515.767-1.675.143-4.762.412-6.647.13-1.237 1.263-1.496 1.203-.349-.112 2.052-.307 5.815-.162 7.524.086.982 2.894 2.432 3.346-.543.238-1.872 1.202-3.719-.047-5.793-.774-1.297 1.136-1.134 2.166.637.72 1.206-.607 3.202-.56 4.744.12 2.373-1.726 3.722-3.066 3.75-1.197.024-1.977-1.446-2.957-1.467-1.089-.07-2.207 1.693-3.106 1.63-3.486-.238-1.64-5.333-2.703-5.395-1.181-.07-2.574 4.994-4.03 4.813-1.434-.172-2.919-4.127-2.322-5.8.54-1.557 1.558-1.922 1.398-.932z"/>
<path d="M318.96 114.6c-1.701-1.038.108-3.736.939-2.788 1.606 1.923 3.224 6.487 4.356 6.864.716.24.683-3.374 1.188-5.016.326-1.213 1.793-.817 1.513.737-.096.52-1.917 6.422-1.777 6.655 1.262 2.522 2.51 5.081 3.3 7.788.326 1.167-1.075.381-1.243.139-.894-1.338-2.46-6.452-2.46-6.219-.72 3.598-.89 4.66-1.655 7.717-.233.98-1.675.802-1.35-.924.313-1.418 2.375-8.392 2.259-8.594-1.621-2.862-3.104-5.125-5.07-6.359z"/>
<path d="M322.03 131.2c-.474-.054-1.21 1.055 1.152 1.49 3.156.572 6.61-.491 7.67-3.586 1.212-3.687 2.013-7.177 2.646-8.493.791-1.535 1.803-1.411 1.056-3.651-.526-1.612-1.51-1.126-1.716-.264-.552 2.35-2.646 9.952-3.3 11.352-1.233 2.555-3.718 3.565-7.508 3.152z"/>
<path d="M328.35 119.07c-.338-.725-1.127-.164-.986.63a1.197 1.197 0 0 0 1.25 1.086c.692-.024 2.155.023 2.159-1.125.002-.807-.632-1.481-1.103-.591-.45.806-1.03.722-1.32 0zM329.14 116.03c-.243.168-.025 1.066.264 1.056 1.031-.035 2.492-.363 3.275-.908.229-.16.133-.702-.193-.69-.994.032-2.575.006-3.346.542zM337.9 118.29c.747-1.167 2.806-1.286 2.066.38-.525 1.148-5.652 11.055-6.352 12.315-.764 1.417-1.389.715-.846-.388.73-1.42 4.898-11.962 5.132-12.307z"/>
<path d="M330.18 133.04c-.219-.788-1.442-1.954-1.304.155.243 3.828 5.503 2.618 7.096 1.257 1.445-1.28.19 4.323 2.112 4.922 1.058.34 3.05-1.105 4.03-2.376 2.717-3.525 4.446-8.578 7.058-12.058.987-1.36-.54-2.332-1.157-1.25-2.272 3.81-5.094 11.586-8.176 13.605-2.513 1.608-1.768-2.07-1.856-3.176-.11-.81-1.097-2.003-2.415-.908-.921.72-2.352 1.305-3.648 1.188-.752-.042-1.386-.029-1.74-1.359z"/>
<path d="M339.57 125.93c.028-.216-1.112-.314-1.056.792.04.819 1.019 1.041 1.188.924 1.54-1.12-.328-.562-.132-1.716zM337.33 130.42c-.303.071-.582 1.04.133 1.095.653.046 3.213-.229 3.92-.187.458-.017.632-.892-.348-.845-1.19.06-2.754-.239-3.705-.063zM275.37 113.76c.406.02 1.52 1.462 1.447 1.913-.05.213-1.191-.031-1.54-.326-.258-.219-.154-1.599.093-1.587zm-5.369 10.452c-1.017.555.162 1.651.924 1.188 2.86-1.853 7.154-3.799 8.052-7.468.287-1.243 1.443-3.148 2.54-3.573 1.059-.411 2.598 1.917 3.602.085.59-1.047 2.654.687 3.152-.433.607-1.354.318-2.099.343-3.395-.045-.85-.693-1.103-1.164.272-.245.623.043 1.251-.156 1.576-.152.247-.625.486-.9.28-.253-.19-.078-.72-.685-.955-.235-.118-.612-.216-.776.086-.72 1.284-1.12 2.482-2.128 1.117-.898-1.176-1.353-3.209-2.011-.427-.237.982-1.73 2.407-2.61 2.407-1.099 0-.823-2.894-3.237-2.453-1.241.264-1.155 2.64-.97 3.517.305 1.22 3.931.344 3.751 1.141-.62 2.771-4.467 5.406-7.727 7.035zM247.3 137.42c-.154.464.462 1.723 1.101 1.816.628.046.948-1.36.746-1.816-.15-.336-1.737-.329-1.847 0zM250.63 142.3c-.403-.434-1.589.73-.63 1.553.54.436 2.513 1.07 3.053.148.73-1.185-.72-5.488-.078-6.057.502-.444 2.828 2.875 3.976 3.114 2.697.373 2.05-4.619 4.956-4.28 1.98.264 2.198-2.211 1.922-3.756-.22-1.483-2.622-3.624-3.726-4.582-1.452-1.21-2.1.892-1.188 1.584 1.173.94 3.236 2.837 3.565 4.093.155.592-1.434 1.77-2.02 1.451-1.35-.737-2.607-3.898-3.789-4.62-.402-.246-1.393.31-.916 1.296.536 1.057 2.905 2.693 3.044 3.821.125 1.029-1.056 3.253-1.831 3.253-.853 0-3.028-2.688-3.706-3.953-.34-.606-1.515-.547-1.638.29-.195 1.255.182 3.912.481 5.558.238 1.559-.878 1.638-1.475 1.087zM246.56 133.73c-.34.384.792 1.134 1.017.94.436-.378 2.128-2.308 1.802-2.983-.29-.601-2.618-1.918-2.997-1.266-.702 1.128 2.195 1.634 1.74 1.965-.223.128-1.02.679-1.562 1.344zM250.73 125.27s.728 2.49 1.32 1.452c.48-.719-1.32-1.452-1.32-1.452zM251.92 129.23c-.266.146-1.017.74-.528 1.056.773.457 2.875.82 2.421-.676-.275-.88 3.171.025 2.331-2.36-.22-.66-1.259-1.612-1.77-1.747-.325-.085-1.429.52-.738.854.504.26 2.024 1.154 1.46 1.74-.642.612-1.089-.275-1.887-.132-.401.076-.14 1.218-.366 1.53-.126.172-.706-.383-.923-.265zM257.4 119.77c-.435.217-1.214 1.396-1.242 1.941-.016.291.303.691.552.567.456-.228 1.16-1.344 1.187-1.856.017-.324-.227-.787-.497-.652zM260.24 119.46c-.84-1.027.891-2.55 1.67-.496.47 1.29 5.488 7.892 6.514 10.132.727 1.516-.026 2.142-.924 1.056-2.541-3.242-4.626-7.283-7.26-10.692zM265.39 119.6c.895-.97 2.721-2.95 2.23-4.053-.378-.95-1.488-.856-1.678-.636-1.086 1.296.772.97.504 1.413-.553 1.038-1.104 1.61-1.39 2.608-.066.234.173.843.334.668zM343.17 122.84c-.643-.52.632-3.044 1.494-2.053 2.368 2.74 3.469 11.636 4.153 18.294 0 0-1.064.887-1.073.746 0-3.547-1.425-14.397-4.574-16.987zM290.07 114.18c-.766-1.76 1.15-2.412 1.436-1.157 1.33 5.783 4.517 10.16 6.942 14.093.73 1.23.145 1.962-1.63.83-1.23-.842-2.478-3.916-3.083-4.037-1.094-.204-3.713 4.993-9.07 3.51-1.385-.388-1.293-4.508-1.32-6.329-.058-.853.885-1.078.917.086.049 1.678-.002 5.164 2.144 5.281 1.75.098 5.627-2.376 6.444-4.31.728-1.99-1.952-5.942-2.78-7.967z"/>
<path d="M344.61 138.38c.428-1.191 6.114-10.735 6.86-12.835.383-1.013 2.015 1.737.421 3.22-1.4 1.26-5.53 8.034-6.301 10.408-.355 1.072-1.432.562-.98-.793z"/>
<path d="M354.28 129.28c1.05-3.935 3.593.607 1.353 2.847-3.458 3.387-4.5 9.854-9.987 10.827-1.479.318-4.082-.666-4.853-1.214-.301-.214.194-1.618 1.119-.933 1.337 1.044 4.098 1.28 5.555.093 3.118-3.06 5.657-7.113 6.813-11.62zM297.27 142.02c-.247.284-1.004.238-1.072.637-.297 1.48 0 2.23-.326 3.655-.312 1.365-1.259 1.416-1.194.304.086-1.442 1.274-3.478.435-3.618-.56-.13-.99-.879-.413-1.248 1.092-.757 1.679-.641 2.43-.413.26.08.328.464.14.683z"/>
<path d="M296.5 140.09c-1.448 1.266-2.79 1.784-4.123 3.384-.544.656-.529 1.57-.854 2.406-.326.888-1.375 1.062-1.7.877-.543-.357-.465-2.003-1.071-1.117-.515.816-.847 1.94-1.608 1.926-.689-.014-1.987-1.422-1.329-1.49 2.252-.23 2.225-2.033 3.068-2.151.946-.127 1.008 1.488 1.592 1.165.46-.236.675-2.117 1.173-2.625 1.527-1.56 2.735-2.385 4.293-3.531.788-.629 1.35.505.559 1.156zM301.78 144.94c-1.159.234-.962 1.724-.621 1.909.561.262 1.43.372 1.755-1.342.151-.703.289 3.498 1.831 1.88.888-.981 3.087.178 4.008-1.056.66-.822.863-1.396.349-2.61-.15-.369-1.053-.187-1.001.709.045.755-.535 1.687-1.29 1.528-.367-.067.206-1.847-.162-2.33-.203-.265-.511-.236-.713.039-.283.384.284 2.09-.646 2.315-1.174.27-.56-1.141-1.056-1.4-1.599-.806-1.753.21-2.454.358zM310.83 142.08c.85-.239.584-.24 1.921-1.334.52-.395.624.76.569 1.216-.097.775-1.018.228-1.304.91-.418.886-.248 2.948-.388 3.788-.096.431-.787.394-.853.054-.198-1.024.14-2.026.108-3.307-.011-.435-.634-1.117-.053-1.327zM305.83 139.46c-.205.927-.19 1.69-.19 2.325.047.514.986.183.982.118-.047-.814.139-1.94-.102-2.253-.13-.17-.642-.365-.69-.19z"/>
<path d="M299.54 130.19l-1.458 5.594-2.03-3.75v3.844l-4.374-5.188 1.521 5.563-3.93-3.344 2.092 3.781-6.975-4.5 4.438 5.188-5.58-2.75 3.995 3.375-9.13-3.438 8.813 4.344c3.223-1.588 7.64-2.563 12.554-2.563 4.896 0 9.335.985 12.554 2.563.012.006.052-.006.064 0l8.75-4.344-9.004 3.469 3.931-3.406-5.516 2.718 4.375-5.156-6.975 4.5 2.093-3.781-3.932 3.344 1.522-5.563-4.375 5.22.063-3.876-2.029 3.75-1.458-5.594z"/>
</g>
</g>
<path d="M291.82 251.63c0 .593-.09 1.449-.267 2.568h-.415c0-.762-.036-1.349-.107-1.759-.067-.41-.2-.898-.401-1.464a6.826 6.826 0 0 0-.542-1.217c-.196-.34-.51-.79-.943-1.351l.83-2.047c.383.49.655.868.815 1.13.183.304.355.685.515 1.144a8.804 8.804 0 0 1 .515 2.996M298.32 247.67c0 .624-.118 1.092-.354 1.404-.237.312-.64.535-1.21.669.164.58.273 1.032.327 1.358.058.325.087.688.087 1.09 0 .258-.016.535-.047.829-.027.294-.078.69-.154 1.19h-.374c0-.446-.025-.83-.074-1.15a5.198 5.198 0 0 0-.207-.916c-.023-.072-.14-.386-.355-.943a9.897 9.897 0 0 0-.628-1.398c-.205-.374-.542-.89-1.01-1.545l.642-1.926c.339.486.635.823.89 1.01.253.183.554.274.902.274.758 0 1.137-.41 1.137-1.23h.388c0 .268.007.49.02.669.013.174.02.379.02.615M304.29 252.19l-.481 2.006c-.304-.084-.551-.323-.743-.715-.16-.326-.276-.738-.348-1.238-.066-.499-.1-1.016-.1-1.55-.406.106-.726.16-.963.16-.468 0-.856-.123-1.163-.368a1.171 1.171 0 0 1-.455-.943c0-.816.21-1.55.628-2.2.424-.656.901-.983 1.432-.983.41 0 .695.116.856.347.178.255.287.544.327.87.04.325.06.954.06 1.886 0 .833.067 1.422.201 1.765.107.268.357.589.749.963m-1.806-3.33c-.08-.509-.347-.763-.802-.763-.196 0-.377.054-.542.16s-.247.201-.247.282c0 .267.32.4.963.4.205 0 .414-.026.628-.08M310.61 251.69l-.24 2.434c-.478-.334-.92-.938-1.325-1.812-.423-.914-.851-2.209-1.284-3.885-.37 1.614-.675 2.797-.916 3.55-.236.75-.47 1.28-.702 1.592-.156.21-.406.422-.75.635l.054-2.327c.442-.602.752-1.06.93-1.377.263-.468.48-1.015.649-1.639.173-.628.33-1.469.468-2.52h.441c.272 1.056.535 1.896.79 2.52.235.589.512 1.108.828 1.558.223.317.575.74 1.057 1.271" fill="#fff"/>
<path d="M328.98 274.65c.325.381.553.755.685 1.121.128.362.22.88.277 1.553l-.725.06c-.309-.606-.61-1.08-.902-1.422a17.906 17.906 0 0 0-1.079-1.114 43.29 43.29 0 0 0-1.524-1.407 32.333 32.333 0 0 0-1.996-1.598c-.284-.211-.464-.362-.54-.451-.114-.133-.203-.395-.269-.785-.07-.394-.113-.885-.13-1.471l2.532 2.06a41.672 41.672 0 0 1 2.372 2.083 19.3 19.3 0 0 1 1.299 1.371m-8.982-5.412l-.152 1.862-2.982-.08.224-1.901 2.91.119m7.845 8.336l-7.106 2.165-1.307-1.807 6.143-1.872c-.28-.385-.495-.654-.648-.808a2.665 2.665 0 0 0-.813-.555c-.02.342-.161.641-.424.9-.263.258-.603.45-1.019.578a3.177 3.177 0 0 1-1.637.069c-.545-.12-.946-.358-1.202-.712-.378-.523-.581-1.218-.61-2.085-.03-.952.23-1.513.783-1.681.717-.219 1.686-.02 2.907.598 1.221.617 2.159 1.377 2.813 2.28l2.12 2.93m-5.457-3.794c-.335-.152-.603-.246-.804-.282a1.067 1.067 0 0 0-.542.011.64.64 0 0 0-.423.348.463.463 0 0 0 .057.493c.074.102.198.17.372.203.178.027.365.01.563-.05a1.05 1.05 0 0 0 .409-.23c.119-.112.241-.276.368-.493m-7.612-1.454l-.435 1.843-2.956-.272.45-1.862 2.94.29m7.005 7.197l-1.578.362a4.974 4.974 0 0 1-1.603.12 3.347 3.347 0 0 1-1.422-.476c-.261.475-.72.873-1.376 1.195-.436.214-.941.387-1.517.52l-1.12.256-1.025-1.882 1.12-.257c.59-.135.992-.248 1.206-.339.22-.097.494-.261.824-.492a5.522 5.522 0 0 0-.875-.461c-.27-.1-.508-.125-.714-.078a.378.378 0 0 0-.194.107.573.573 0 0 0-.119.245l-.491.066c-.455-.835-.56-1.48-.312-1.937.252-.462.858-.804 1.817-1.024.989-.226 1.833-.277 2.532-.153.705.12 1.176.397 1.415.836.128.235.177.478.146.73-.034.246-.156.6-.368 1.064a1.5 1.5 0 0 0 .519.115c.198.011.375 0 .532-.037l1.578-.362 1.025 1.882m-7.543 1.755l-1.54.242c-.857.134-1.561.003-2.113-.394-.613-.437-1.141-1.253-1.586-2.446l-.757-2.033c-.172-.462-.405-.805-.699-1.03-.14-.11-.427-.253-.858-.432l.522-1.97c.567.314 1.004.643 1.31.987.36.402.664.938.914 1.609l.524 1.405c.37.994.73 1.667 1.078 2.02.277.284.59.399.943.343l1.539-.241.723 1.94m-6.578-7.065l-.994 1.75-2.812-.65 1.002-1.765 2.804.665m1.636 7.922l-7.012.635-.426-1.977 5.892-.534a2.183 2.183 0 0 0-.627-.795c-.14-.116-.448-.31-.925-.583l.524-1.811c.648.36 1.122.758 1.42 1.19.307.432.555 1.09.746 1.978l.408 1.897m-5.63.897c-.843-.028-1.54-.09-2.091-.187a9.864 9.864 0 0 1-1.62-.429 5.278 5.278 0 0 1-1.206.357c-.344.052-.859.067-1.544.044l-1.84-.06c-.505-.018-.898-.116-1.178-.297-.28-.181-.521-.473-.724-.877a3.872 3.872 0 0 1-1.458.834c-.45.136-.978.195-1.588.175l-1.616-.054.158-1.994 1.615.054c.79.026 1.461-.096 2.011-.367.715-.353 1.103-.913 1.163-1.68l.74.098c-.027.155-.057.333-.087.533-.031.2-.056.422-.076.666-.02.25.096.462.347.636.25.175.545.268.884.28l1.389.046c.919.03 1.58-.03 1.985-.184.49-.185.757-.55.8-1.098.01-.117.074-.22.195-.31.072-.05.217-.127.437-.227l.446-.206c.008.094.01.221.004.382-.005.157-.009.26-.013.309-.021.268-.11.623-.265 1.064.272.097.578.183.92.258.34.075.702.136 1.084.183.013-.166-.064-.384-.232-.654-.167-.27-.247-.452-.24-.545a.49.49 0 0 1 .102-.29c.017-.024.106-.097.267-.22l1.026-.81c.18.315.3.6.363.857.07.252.091.567.061.943l-.218 2.77m-10.645-8.19l-1.772 1.253-1.335-.824-1.315.98-1.757-1.06 1.677-1.193 1.419.792 1.37-1.002 1.713 1.053m-2.785 7.635l-6.865-1.125.753-1.935 5.768.945c.045-.336.005-.632-.12-.89-.062-.141-.234-.397-.518-.766l1.536-1.55c.392.493.6.977.626 1.45.033.475-.12 1.146-.458 2.014l-.722 1.857m-5.78-.896l-1.484-.357c-.827-.199-1.299-.563-1.415-1.092-.132-.585.131-1.453.79-2.604l1.12-1.961c.254-.445.357-.815.307-1.108-.024-.142-.137-.365-.341-.67l2.128-1.444c.2.466.28.897.238 1.294-.048.463-.256 1.018-.626 1.665l-.775 1.356c-.548.959-.829 1.648-.843 2.067-.015.335.147.544.487.626l1.484.357-1.07 1.871m-3.515-7.43l-2.41 1.017-1.655-1.611 2.43-1.026 1.635 1.62m-1.025 6.225c-.5.592-.993 1.036-1.476 1.333a3.988 3.988 0 0 1-1.612.547c-.589.075-1.334.04-2.237-.102-.9-.137-1.766-.353-2.598-.65-1.606-.573-2.684-1.205-3.233-1.898-.546-.686-.523-1.378.068-2.077a6.604 6.604 0 0 1 1.8-1.485c.765-.437 1.959-.932 3.581-1.487l.366.482c-1.267.492-2.142.864-2.623 1.117a3.92 3.92 0 0 0-1.152.903c-.381.45-.323.951.174 1.503.507.549 1.365 1.039 2.574 1.47 1.19.424 2.316.633 3.38.627 1.063-.006 1.776-.224 2.14-.653.225-.265.375-.555.451-.868.083-.311.133-.838.15-1.58l2.343-1.426c.001.71-.032 1.186-.1 1.43-.118.444-.42.953-.907 1.527l-1.089 1.287" fill="#bf0000"/>
</svg>
