<svg xmlns="http://www.w3.org/2000/svg" xmlns:xlink="http://www.w3.org/1999/xlink" viewBox="-27 -14 54 36">
<path fill="#fff" d="M-27-14h54v36h-54z"/>
<path fill="#dc171d" d="M-6-14H6v36H-6z"/>
<path fill="#012a87" d="M-27-2h54v12h-54z"/>
<g id="c" fill="#fff" transform="scale(1.5)">
<g id="b">
<path id="a" transform="rotate(18 3.157 -.5)" d="M0 0v1h.5z"/>
<use xlink:href="#a" transform="scale(-1 1)"/>
</g>
<use xlink:href="#b" transform="rotate(72)"/>
<use xlink:href="#b" transform="rotate(-72)"/>
<use xlink:href="#b" transform="rotate(144)"/>
<use xlink:href="#b" transform="rotate(-144)"/>
</g>
<g id="d">
<use xlink:href="#c" transform="translate(8 3.314)"/>
<use xlink:href="#c" transform="translate(3.314 8)"/>
</g>
<use xlink:href="#d" transform="scale(-1 1)"/>
</svg>
