<svg xmlns="http://www.w3.org/2000/svg" xmlns:xlink="http://www.w3.org/1999/xlink" viewBox="0 0 500 300">
<defs>
<g id="e" fill="#1eb53a">
<g id="d">
<g id="c">
<g id="b">
<path id="a" d="M0-20V0h20" transform="rotate(30 0 -20)"/>
<use xlink:href="#a" transform="scale(-1 1)"/>
</g>
<use xlink:href="#b" transform="rotate(120)"/>
<use xlink:href="#b" transform="rotate(240)"/>
</g>
<use xlink:href="#c" transform="rotate(180)"/>
</g>
<use xlink:href="#d" fill="#ce1126" transform="scale(.82)"/>
</g>
<use id="f" xlink:href="#e" x="250" y="106"/>
</defs>
<path d="M0 0h500L0 300h500z" fill="#ce1126"/>
<path d="M0 0v300L500 0v300z" fill="#1eb53a"/>
<path d="M0 0l500 300m0-300L0 300" stroke="#fff" stroke-width="40"/>
<circle cx="250" cy="150" r="85" fill="#fff"/>
<use xlink:href="#f"/>
<use xlink:href="#f" transform="rotate(120 250 150)"/>
<use xlink:href="#f" transform="rotate(240 250 150)"/>
</svg>
