<svg xmlns="http://www.w3.org/2000/svg" xmlns:xlink="http://www.w3.org/1999/xlink" viewBox="-4 -4 24 16">
<path d="M20 12H-4V-4h24z" fill="#d52b1e"/>
<path d="M4 4h16v-8H-4z" fill="#fff"/>
<path d="M4 4h-8v-8h8z" fill="#0039a6"/>
<g id="c">
<g id="b">
<path d="M0-2v2h1z" fill="#fff" transform="rotate(18 0 -2)" id="a"/>
<use xlink:href="#a" transform="scale(-1 1)"/>
</g>
<use xlink:href="#b" transform="rotate(72)"/>
</g>
<use xlink:href="#b" transform="rotate(-72)"/>
<use xlink:href="#c" transform="rotate(144)"/>
</svg>
