<svg xmlns="http://www.w3.org/2000/svg" xmlns:xlink="http://www.w3.org/1999/xlink" viewBox="-19 -10 38 20">
<path fill="#75b2dd" d="M-19-10h38v20h-38z"/>
<g id="c" transform="translate(0 -6)" fill="#fff">
<g id="b">
<path id="a" d="M0-2v2h1" transform="rotate(18 0 -2)"/>
<use xlink:href="#a" transform="scale(-1 1)"/>
</g>
<use xlink:href="#b" transform="rotate(72)"/>
<use xlink:href="#b" transform="rotate(144)"/>
<use xlink:href="#b" transform="rotate(216)"/>
<use xlink:href="#b" transform="rotate(288)"/>
</g>
<use xlink:href="#c" transform="rotate(90)"/>
<use xlink:href="#c" transform="rotate(180)"/>
<use xlink:href="#c" transform="rotate(270)"/>
</svg>
