<svg xmlns="http://www.w3.org/2000/svg" xmlns:xlink="http://www.w3.org/1999/xlink" viewBox="-18 -12 36 24">
<path fill="#fff" d="M-18-12h36v24h-36z"/>
<path d="M0-12v24M-18 0h36" stroke="#e8112d" stroke-width="6" fill="none"/>
<path id="a" d="M-9 2l1-1h9v-2h-9l-1-1z" fill="#f9dd16"/>
<use xlink:href="#a" transform="rotate(90)"/>
<use xlink:href="#a" transform="rotate(-90)"/>
<use xlink:href="#a" transform="rotate(180)"/>
</svg>
