<svg xmlns="http://www.w3.org/2000/svg" xmlns:xlink="http://www.w3.org/1999/xlink" viewBox="0 0 225 150">
<path fill="#f93" d="M0 0h225v150H0z"/>
<path fill="#fff" d="M0 50h225v50H0z"/>
<path fill="#128807" d="M0 100h225v50H0z"/>
<g transform="translate(112.5 75)">
<circle r="20" fill="#008"/>
<circle r="17.5" fill="#fff"/>
<circle r="3.5" fill="#008"/>
<g id="d">
<g id="c">
<g id="b">
<g id="a" fill="#008">
<circle r=".875" transform="rotate(7.5 -8.75 133.5)"/>
<path d="M0 17.5L.6 7 0 2l-.6 5L0 17.5z"/>
</g>
<use xlink:href="#a" transform="rotate(15)"/>
</g>
<use xlink:href="#b" transform="rotate(30)"/>
</g>
<use xlink:href="#c" transform="rotate(60)"/>
</g>
<use xlink:href="#d" transform="rotate(120)"/>
<use xlink:href="#d" transform="rotate(-120)"/>
</g>
</svg>
