<svg xmlns="http://www.w3.org/2000/svg" xmlns:xlink="http://www.w3.org/1999/xlink" viewBox="0 0 750 500">
<path d="M750 0H0v500" fill="#009e49"/>
<path d="M0 500h750V0" fill="#ce1126"/>
<path d="M0 500L750 0" stroke="#fcd116" stroke-width="210"/>
<path d="M0 500L750 0" stroke="#000" stroke-width="150"/>
<g id="c" transform="rotate(-33.69 514.716 -777.095)" fill="#fff">
<g id="b">
<path id="a" d="M0-70V0h35" transform="rotate(18 0 -70)"/>
<use xlink:href="#a" transform="scale(-1 1)"/>
</g>
<use xlink:href="#b" transform="rotate(72)"/>
<use xlink:href="#b" transform="rotate(144)"/>
<use xlink:href="#b" transform="rotate(216)"/>
<use xlink:href="#b" transform="rotate(288)"/>
</g>
<use xlink:href="#c" transform="translate(-285 190)"/>
</svg>
