<svg xmlns="http://www.w3.org/2000/svg" xmlns:xlink="http://www.w3.org/1999/xlink" viewBox="0 0 72 36">
<path fill="#024FA2" d="M0 0h72v36H0z"/>
<path fill="#fff" d="M0 6h72v24H0z"/>
<path fill="#ED1C27" d="M0 7h72v22H0z"/>
<circle fill="#fff" cx="24" cy="18" r="8"/>
<g transform="matrix(7.75 0 0 7.75 24 18)" fill="#ED1C27">
<g id="b">
<path id="a" transform="rotate(18 3.157 -.5)" d="M0 0v1h.5z"/>
<use xlink:href="#a" transform="scale(-1 1)"/>
</g>
<use xlink:href="#b" transform="rotate(72)"/>
<use xlink:href="#b" transform="rotate(-72)"/>
<use xlink:href="#b" transform="rotate(144)"/>
<use xlink:href="#b" transform="rotate(-144)"/>
</g>
</svg>
