<svg xmlns="http://www.w3.org/2000/svg" xmlns:xlink="http://www.w3.org/1999/xlink" viewBox="0 0 209 110">
<path fill="#bf0a30" d="M0 0h209v110H0z"/>
<path d="M0 15h209M0 35h209M0 55h209M0 75h209M0 95h209" stroke="#fff" stroke-width="10"/>
<path fill="#002868" d="M0 0h50v50H0z"/>
<g transform="matrix(15 0 0 15 25 25)">
<g id="b">
<path id="a" fill="#fff" transform="rotate(18 3.157 -.5)" d="M0 0v1h.5z"/>
<use xlink:href="#a" transform="scale(-1 1)"/>
</g>
<use xlink:href="#b" transform="rotate(72)"/>
<use xlink:href="#b" transform="rotate(-72)"/>
<use xlink:href="#b" transform="rotate(144)"/>
<use xlink:href="#b" transform="rotate(-144)"/>
</g>
</svg>
