<svg xmlns="http://www.w3.org/2000/svg" viewBox="0 0 900 600">
<path fill="#c1272d" d="M900 0H0v600h900z"/>
<path d="M450 224.315l-44.467 136.87 116.401-84.559h-143.87l116.403 84.559z" fill="none" stroke="#006233" stroke-width="14.63"/>
</svg>
