<svg xmlns="http://www.w3.org/2000/svg" xmlns:xlink="http://www.w3.org/1999/xlink" viewBox="-225 -114 450 300">
<path d="M-225-114h450v300h-450z"/>
<g fill="#CE1126">
<circle r="64.5"/>
<path d="M-225-14h450V86h-450z"/>
<g id="e">
<g id="d">
<g id="c">
<g id="b">
<path id="a" d="M0-102c-2.2 0-3 3.3-3 6.5 0 8 1 12 3 23.5 2.04-11.5 3-15.6 3-23.5 0-3.3-1-6.5-3-6.5"/>
<use transform="rotate(5)" xlink:href="#a"/>
</g>
<use transform="rotate(10)" xlink:href="#b"/>
</g>
<use transform="rotate(20)" xlink:href="#c"/>
</g>
<use transform="rotate(40)" xlink:href="#d"/>
</g>
<use transform="rotate(-80)" xlink:href="#e"/>
</g>
<path d="M-225-21.5h450v7.5h-450z"/>
<path fill="#339E35" d="M-225 86h450v100h-450z"/>
</svg>
