<svg xmlns="http://www.w3.org/2000/svg" xmlns:xlink="http://www.w3.org/1999/xlink" viewBox="0 0 90 60">
<path d="M90 0H0v60z" fill="#003580"/>
<path d="M0 60h90V0z" fill="#009543"/>
<path d="M0 60L90 0" stroke="#fff" stroke-width="20"/>
<path d="M0 60L90 0" stroke="#d21034" stroke-width="15"/>
<g fill="#ffce00" transform="translate(18 16.341)">
<g id="b">
<path id="a" d="M0 10l1.553-4.204h-3.106z"/>
<use xlink:href="#a" transform="rotate(90)"/>
<use xlink:href="#a" transform="rotate(180)"/>
<use xlink:href="#a" transform="rotate(270)"/>
</g>
<use xlink:href="#b" transform="rotate(30)"/>
<use xlink:href="#b" transform="rotate(60)"/>
<circle r="5.5" stroke="#003580"/>
</g>
</svg>
