<svg xmlns="http://www.w3.org/2000/svg" xmlns:xlink="http://www.w3.org/1999/xlink" viewBox="0 0 1080 720">
<path fill="#20603D" d="M0 0h1080v720H0z"/>
<path fill="#FAD201" d="M0 0h1080v540H0z"/>
<path fill="#00A1DE" d="M0 0h1080v360H0z"/>
<g transform="translate(886.5 188.1)">
<g id="b">
<path id="a" fill="#E5BE01" d="M116.1 0L35.692 4.699l76.452 25.35L33.26 13.777l67.286 44.273L28.56 21.915l53.534 60.18-60.18-53.534 36.135 71.985L13.777 33.26l16.272 78.884-25.35-76.452L0 116.1-1-1z"/>
<use xlink:href="#a" transform="scale(1 -1)"/>
</g>
<use xlink:href="#b" transform="scale(-1 1)"/>
<circle r="34.3" fill="#E5BE01" stroke="#00A1DE" stroke-width="3.4"/>
</g>
</svg>
