<svg xmlns="http://www.w3.org/2000/svg" xmlns:xlink="http://www.w3.org/1999/xlink" viewBox="0 0 10080 5040">
<defs>
<clipPath id="c">
<path d="M0,0V1.5H7V3H6zM6,0H3V3.5H0V3z"/>
</clipPath>
<path id="Star7" d="M0,-360 69,-144 281,-224 155,-35 350,80 125,99 156,324 0,160 -156,324 -125,99 -350,80 -155,-35 -281,-224 -69,-144z"/>
<path id="Star5" d="M0,-210 54,-75 199,-64 88,28 123,169 0,93 -123,169 -88,28 -199,-64 -54,-75z"/>
<use id="Cstar" xlink:href="#Star7" transform="scale(2.1)"/>
</defs>
<g transform="scale(840)">
<rect width="12" height="6" fill="#00008b"/>
<path d="M0,0 6,3M6,0 0,3" stroke="#fff" stroke-width="0.6"/>
<path d="M0,0 6,3M6,0 0,3" stroke="#f00" stroke-width="0.4" clip-path="url(#c)"/>
<path d="M3,0V3.5M0,1.5H7" stroke="#fff"/>
<path d="M3,0V3.5M0,1.5H7" stroke="#f00" stroke-width="0.6"/>
<path d="M0,3H6V0H8V4H0z" fill="#00008b"/>
</g>
<g fill="#fff">
<use id="Comwlth" xlink:href="#Cstar" x="2520" y="3780"/>
<use id="&#x3B1;Crucis" xlink:href="#Star7" x="7560" y="4200"/>
<use id="&#x3B2;Crucis" xlink:href="#Star7" x="6300" y="2205"/>
<use id="&#x3B3;Crucis" xlink:href="#Star7" x="7560" y="840"/>
<use id="&#x3B4;Crucis" xlink:href="#Star7" x="8680" y="1869"/>
<use id="&#x3B5;Crucis" xlink:href="#Star5" x="8064" y="2730"/>
</g>
</svg>
